{"response":{"status":"ok","userTier":"developer","total":2225884,"startIndex":1,"pageSize":10,"currentPage":1,"pages":222589,"orderBy":"newest","results":[{"id":"football/live/2020/oct/22/europa-league-arsenal-rangers-dundalk-celtic-milan-tottenham-leicester-live-clockwatch","type":"liveblog","sectionId":"football","sectionName":"Football","webPublicationDate":"2020-10-22T20:10:41Z","webTitle":"Europa League: Celtic v Milan, Tottenham and Leicester in action – live!","webUrl":"https://www.theguardian.com/football/live/2020/oct/22/europa-league-arsenal-rangers-dundalk-celtic-milan-tottenham-leicester-live-clockwatch","apiUrl":"https://content.guardianapis.com/football/live/2020/oct/22/europa-league-arsenal-rangers-dundalk-celtic-milan-tottenham-leicester-live-clockwatch","isHosted":false,"pillarId":"pillar/sport","pillarName":"Sport"},{"id":"australia-news/2020/oct/23/morning-mail-stranded-travellers-return-epstein-docs-unsealed-trump-hacked","type":"article","sectionId":"australia-news","sectionName":"Australia news","webPublicationDate":"2020-10-22T20:07:10Z","webTitle":"Morning mail: stranded travellers return, Epstein docs unsealed, Trump hacked","webUrl":"https://www.theguardian.com/australia-news/2020/oct/23/morning-mail-stranded-travellers-return-epstein-docs-unsealed-trump-hacked","apiUrl":"https://content.guardianapis.com/australia-news/2020/oct/23/morning-mail-stranded-travellers-return-epstein-docs-unsealed-trump-hacked","isHosted":false,"pillarId":"pillar/news","pillarName":"News"},{"id":"world/2020/oct/22/iraqs-prime-minister-says-country-on-tightrope-between-us-and-iran","type":"article","sectionId":"world","sectionName":"World news","webPublicationDate":"2020-10-22T20:05:23Z","webTitle":"Iraq's prime minister says country on tightrope between US and Iran","webUrl":"https://www.theguardian.com/world/2020/oct/22/iraqs-prime-minister-says-country-on-tightrope-between-us-and-iran","apiUrl":"https://content.guardianapis.com/world/2020/oct/22/iraqs-prime-minister-says-country-on-tightrope-between-us-and-iran","isHosted":false,"pillarId":"pillar/news","pillarName":"News"},{"id":"business/2020/oct/22/rishi-sunak-chancellor-covid-wage-rescue-package-businesses-second-wave","type":"article","sectionId":"business","sectionName":"Business","webPublicationDate":"2020-10-22T20:01:59Z","webTitle":"Rishi Sunak forced to offer multibillion-pound job package as Covid fears mount","webUrl":"https://www.theguardian.com/business/2020/oct/22/rishi-sunak-chancellor-covid-wage-rescue-package-businesses-second-wave","apiUrl":"https://content.guardianapis.com/business/2020/oct/22/rishi-sunak-chancellor-covid-wage-rescue-package-businesses-second-wave","isHosted":false,"pillarId":"pillar/news","pillarName":"News"},{"id":"sport/2020/oct/22/england-cricketers-win-bonuses-set-to-be-slashed-by-half-in-ecb-cuts","type":"article","sectionId":"sport","sectionName":"Sport","webPublicationDate":"2020-10-22T20:00:34Z","webTitle":"England cricketers' win bonuses set to be slashed by half in ECB cuts","webUrl":"https://www.theguardian.com/sport/2020/oct/22/england-cricketers-win-bonuses-set-to-be-slashed-by-half-in-ecb-cuts","apiUrl":"https://content.guardianapis.com/sport/2020/oct/22/england-cricketers-win-bonuses-set-to-be-slashed-by-half-in-ecb-cuts","isHosted":false,"pillarId":"pillar/sport","pillarName":"Sport"},{"id":"news/2020/oct/22/corrections-and-clarifications","type":"article","sectionId":"news","sectionName":"News","webPublicationDate":"2020-10-22T20:00:34Z","webTitle":"Corrections and clarifications","webUrl":"https://www.theguardian.com/news/2020/oct/22/corrections-and-clarifications","apiUrl":"https://content.guardianapis.com/news/2020/oct/22/corrections-and-clarifications","isHosted":false,"pillarId":"pillar/news","pillarName":"News"},{"id":"us-news/live/2020/oct/22/amy-coney-barrett-committee-vote-donald-trump-joe-biden-debate-us-election-live-updates","type":"liveblog","sectionId":"us-news","sectionName":"US news","webPublicationDate":"2020-10-22T19:56:45Z","webTitle":"Senate judiciary committee approves Amy Coney Barrett as Democrats boycott – live","webUrl":"https://www.theguardian.com/us-news/live/2020/oct/22/amy-coney-barrett-committee-vote-donald-trump-joe-biden-debate-us-election-live-updates","apiUrl":"https://content.guardianapis.com/us-news/live/2020/oct/22/amy-coney-barrett-committee-vote-donald-trump-joe-biden-debate-us-election-live-updates","isHosted":false,"pillarId":"pillar/news","pillarName":"News"},{"id":"world/live/2020/oct/22/coronavirus-live-news-france-nears-1m-cases-as-four-us-states-see-record-one-day-deaths","type":"liveblog","sectionId":"world","sectionName":"World news","webPublicationDate":"2020-10-22T19:55:03Z","webTitle":"Coronavirus live news: France curfew extended as country sees record 41,622 new cases; curfew imposed in Greece","webUrl":"https://www.theguardian.com/world/live/2020/oct/22/coronavirus-live-news-france-nears-1m-cases-as-four-us-states-see-record-one-day-deaths","apiUrl":"https://content.guardianapis.com/world/live/2020/oct/22/coronavirus-live-news-france-nears-1m-cases-as-four-us-states-see-record-one-day-deaths","isHosted":false,"pillarId":"pillar/news","pillarName":"News"},{"id":"games/2020/oct/22/alexandria-ocasio-cortez-ilhan-omar-among-us-twitch-stream-aoc","type":"article","sectionId":"games","sectionName":"Games","webPublicationDate":"2020-10-22T19:52:23Z","webTitle":"AOC played Among Us and achieved what most politicians fail at: acting normal","webUrl":"https://www.theguardian.com/games/2020/oct/22/alexandria-ocasio-cortez-ilhan-omar-among-us-twitch-stream-aoc","apiUrl":"https://content.guardianapis.com/games/2020/oct/22/alexandria-ocasio-cortez-ilhan-omar-among-us-twitch-stream-aoc","isHosted":false,"pillarId":"pillar/arts","pillarName":"Arts"},{"id":"us-news/2020/oct/22/ghislaine-maxwell-deposition-unsealed-jeffrey-epstein","type":"article","sectionId":"us-news","sectionName":"US news","webPublicationDate":"2020-10-22T19:33:03Z","webTitle":"Ghislaine Maxwell deposition unsealed after court ruling","webUrl":"https://www.theguardian.com/us-news/2020/oct/22/ghislaine-maxwell-deposition-unsealed-jeffrey-epstein","apiUrl":"https://content.guardianapis.com/us-news/2020/oct/22/ghislaine-maxwell-deposition-unsealed-jeffrey-epstein","isHosted":false,"pillarId":"pillar/news","pillarName":"News"}]}}